{
  "data": {
    "curPage": 2,
    "datas": [
      {
        "adminAdd": false,
        "apkLink": "",
        "audit": 1,
        "author": "",
        "canEdit": false,
        "chapterId": 502,
        "chapterName": "自助",
        "collect": false,
        "courseId": 13,
        "desc": "",
        "descMd": "",
        "envelopePic": "",
        "fresh": false,
        "host": "",
        "id": 24865,
        "isAdminAdd": false,
        "link": "https://juejin.cn/post/7162203434014212109/",
        "niceDate": "2天前",
        "niceShareDate": "2天前",
        "origin": "",
        "prefix": "",
        "projectLink": "",
        "publishTime": 1667581276000,
        "realSuperChapterId": 493,
        "selfVisible": 0,
        "shareDate": 1667581276000,
        "shareUser": "彭旭锐",
        "superChapterId": 494,
        "superChapterName": "广场Tab",
        "tags": [],
        "title": "Java 面试题：说一下 ArrayList 和 LinkedList 的区别？",
        "type": 0,
        "userId": 30587,
        "visible": 1,
        "zan": 0
      },
      {
        "adminAdd": false,
        "apkLink": "",
        "audit": 1,
        "author": "",
        "canEdit": false,
        "chapterId": 502,
        "chapterName": "自助",
        "collect": false,
        "courseId": 13,
        "desc": "",
        "descMd": "",
        "envelopePic": "",
        "fresh": false,
        "host": "",
        "id": 24864,
        "isAdminAdd": false,
        "link": "https://juejin.cn/post/7162035643785150472",
        "niceDate": "2天前",
        "niceShareDate": "2天前",
        "origin": "",
        "prefix": "",
        "projectLink": "",
        "publishTime": 1667581254000,
        "realSuperChapterId": 493,
        "selfVisible": 0,
        "shareDate": 1667581254000,
        "shareUser": "彭旭锐",
        "superChapterId": 494,
        "superChapterName": "广场Tab",
        "tags": [],
        "title": "Java 面试题：CopyOnWriteArrayList 是如何保证线程安全的？",
        "type": 0,
        "userId": 30587,
        "visible": 1,
        "zan": 0
      },
      {
        "adminAdd": false,
        "apkLink": "",
        "audit": 1,
        "author": "",
        "canEdit": false,
        "chapterId": 502,
        "chapterName": "自助",
        "collect": false,
        "courseId": 13,
        "desc": "",
        "descMd": "",
        "envelopePic": "",
        "fresh": false,
        "host": "",
        "id": 24863,
        "isAdminAdd": false,
        "link": "https://juejin.cn/post/7160296095170428965",
        "niceDate": "2022-11-04 10:45",
        "niceShareDate": "2022-11-04 10:45",
        "origin": "",
        "prefix": "",
        "projectLink": "",
        "publishTime": 1667529945000,
        "realSuperChapterId": 493,
        "selfVisible": 0,
        "shareDate": 1667529945000,
        "shareUser": "sweetying",
        "superChapterId": 494,
        "superChapterName": "广场Tab",
        "tags": [],
        "title": "Gradle 系列 （六）、Gradle Transform + ASM + Javassist 实战",
        "type": 0,
        "userId": 5405,
        "visible": 1,
        "zan": 0
      },
      {
        "adminAdd": false,
        "apkLink": "",
        "audit": 1,
        "author": "",
        "canEdit": false,
        "chapterId": 502,
        "chapterName": "自助",
        "collect": false,
        "courseId": 13,
        "desc": "",
        "descMd": "",
        "envelopePic": "",
        "fresh": false,
        "host": "",
        "id": 24862,
        "isAdminAdd": false,
        "link": "https://juejin.cn/post/7159841721856032804",
        "niceDate": "2022-11-04 10:44",
        "niceShareDate": "2022-11-04 10:44",
        "origin": "",
        "prefix": "",
        "projectLink": "",
        "publishTime": 1667529899000,
        "realSuperChapterId": 493,
        "selfVisible": 0,
        "shareDate": 1667529899000,
        "shareUser": "sweetying",
        "superChapterId": 494,
        "superChapterName": "广场Tab",
        "tags": [],
        "title": "Gradle 系列 （五）、自定义 Gradle Transform",
        "type": 0,
        "userId": 5405,
        "visible": 1,
        "zan": 0
      },
      {
        "adminAdd": false,
        "apkLink": "",
        "audit": 1,
        "author": "鸿洋",
        "canEdit": false,
        "chapterId": 408,
        "chapterName": "鸿洋",
        "collect": false,
        "courseId": 13,
        "desc": "",
        "descMd": "",
        "envelopePic": "",
        "fresh": false,
        "host": "",
        "id": 24879,
        "isAdminAdd": false,
        "link": "https://mp.weixin.qq.com/s/7xI7ly1TtZqCzfubQbIAkg",
        "niceDate": "2022-11-04 00:00",
        "niceShareDate": "23小时前",
        "origin": "",
        "prefix": "",
        "projectLink": "",
        "publishTime": 1667491200000,
        "realSuperChapterId": 407,
        "selfVisible": 0,
        "shareDate": 1667745637000,
        "shareUser": "",
        "superChapterId": 408,
        "superChapterName": "公众号",
        "tags": [
          {
            "name": "公众号",
            "url": "/wxarticle/list/408/1"
          }
        ],
        "title": "Kotlin称王？Java如何调用各种Kotlin高级特性",
        "type": 0,
        "userId": -1,
        "visible": 1,
        "zan": 0
      },
      {
        "adminAdd": false,
        "apkLink": "",
        "audit": 1,
        "author": "谷歌开发者",
        "canEdit": false,
        "chapterId": 415,
        "chapterName": "谷歌开发者",
        "collect": false,
        "courseId": 13,
        "desc": "",
        "descMd": "",
        "envelopePic": "",
        "fresh": false,
        "host": "",
        "id": 24880,
        "isAdminAdd": false,
        "link": "https://mp.weixin.qq.com/s/9Poecs78JKaOc03MnHMCUQ",
        "niceDate": "2022-11-04 00:00",
        "niceShareDate": "23小时前",
        "origin": "",
        "prefix": "",
        "projectLink": "",
        "publishTime": 1667491200000,
        "realSuperChapterId": 407,
        "selfVisible": 0,
        "shareDate": 1667745652000,
        "shareUser": "",
        "superChapterId": 408,
        "superChapterName": "公众号",
        "tags": [
          {
            "name": "公众号",
            "url": "/wxarticle/list/415/1"
          }
        ],
        "title": "Android 13 带来了哪些新功能？需要哪些适配工作？| 开发者说&middot;DTalk",
        "type": 0,
        "userId": -1,
        "visible": 1,
        "zan": 0
      },
      {
        "adminAdd": false,
        "apkLink": "",
        "audit": 1,
        "author": "",
        "canEdit": false,
        "chapterId": 502,
        "chapterName": "自助",
        "collect": false,
        "courseId": 13,
        "desc": "",
        "descMd": "",
        "envelopePic": "",
        "fresh": false,
        "host": "",
        "id": 24851,
        "isAdminAdd": false,
        "link": "https://juejin.cn/post/7161230716838084616",
        "niceDate": "2022-11-03 23:52",
        "niceShareDate": "2022-11-02 23:37",
        "origin": "",
        "prefix": "",
        "projectLink": "",
        "publishTime": 1667490765000,
        "realSuperChapterId": 493,
        "selfVisible": 0,
        "shareDate": 1667403438000,
        "shareUser": "鸿洋",
        "superChapterId": 494,
        "superChapterName": "广场Tab",
        "tags": [],
        "title": "Android 13这些权限废弃，你的应用受影响了吗？",
        "type": 0,
        "userId": 2,
        "visible": 1,
        "zan": 0
      },
      {
        "adminAdd": false,
        "apkLink": "",
        "audit": 1,
        "author": "",
        "canEdit": false,
        "chapterId": 502,
        "chapterName": "自助",
        "collect": false,
        "courseId": 13,
        "desc": "",
        "descMd": "",
        "envelopePic": "",
        "fresh": false,
        "host": "",
        "id": 24854,
        "isAdminAdd": false,
        "link": "https://blog.csdn.net/petterp/article/details/124310591",
        "niceDate": "2022-11-03 23:52",
        "niceShareDate": "2022-11-03 11:01",
        "origin": "",
        "prefix": "",
        "projectLink": "",
        "publishTime": 1667490761000,
        "realSuperChapterId": 493,
        "selfVisible": 0,
        "shareDate": 1667444495000,
        "shareUser": "herozqtc",
        "superChapterId": 494,
        "superChapterName": "广场Tab",
        "tags": [],
        "title": "Kotlin | 关于 Lazy ，你应该了解的这些事",
        "type": 0,
        "userId": 141281,
        "visible": 1,
        "zan": 0
      },
      {
        "adminAdd": false,
        "apkLink": "",
        "audit": 1,
        "author": "",
        "canEdit": false,
        "chapterId": 502,
        "chapterName": "自助",
        "collect": false,
        "courseId": 13,
        "desc": "",
        "descMd": "",
        "envelopePic": "",
        "fresh": false,
        "host": "",
        "id": 24856,
        "isAdminAdd": false,
        "link": "https://juejin.cn/post/7161731329078329381/",
        "niceDate": "2022-11-03 18:18",
        "niceShareDate": "2022-11-03 18:18",
        "origin": "",
        "prefix": "",
        "projectLink": "",
        "publishTime": 1667470712000,
        "realSuperChapterId": 493,
        "selfVisible": 0,
        "shareDate": 1667470712000,
        "shareUser": "彭旭锐",
        "superChapterId": 494,
        "superChapterName": "广场Tab",
        "tags": [],
        "title": "Java 面试题：ArrayList 可以完全替代数组吗？",
        "type": 0,
        "userId": 30587,
        "visible": 1,
        "zan": 0
      },
      {
        "adminAdd": false,
        "apkLink": "",
        "audit": 1,
        "author": "",
        "canEdit": false,
        "chapterId": 502,
        "chapterName": "自助",
        "collect": false,
        "courseId": 13,
        "desc": "",
        "descMd": "",
        "envelopePic": "",
        "fresh": false,
        "host": "",
        "id": 24848,
        "isAdminAdd": false,
        "link": "https://juejin.cn/post/7161294480673832973",
        "niceDate": "2022-11-03 17:22",
        "niceShareDate": "2022-11-02 23:37",
        "origin": "",
        "prefix": "",
        "projectLink": "",
        "publishTime": 1667467368000,
        "realSuperChapterId": 493,
        "selfVisible": 0,
        "shareDate": 1667403421000,
        "shareUser": "鸿洋",
        "superChapterId": 494,
        "superChapterName": "广场Tab",
        "tags": [],
        "title": "Android 插件化中资源错乱的解决方案",
        "type": 0,
        "userId": 2,
        "visible": 1,
        "zan": 0
      }
    ],
    "offset": 10,
    "over": false,
    "pageCount": 1336,
    "size": 10,
    "total": 13352
  },
  "errorCode": 0,
  "errorMsg": ""
}