{
  "data": {
    "curPage": 2,
    "datas": [
      {
        "apkLink": "",
        "audit": 1,
        "author": "郭霖",
        "canEdit": false,
        "chapterId": 409,
        "chapterName": "郭霖",
        "collect": false,
        "courseId": 13,
        "desc": "",
        "descMd": "",
        "envelopePic": "",
        "fresh": false,
        "host": "",
        "id": 23048,
        "link": "https://mp.weixin.qq.com/s/brZ6gog_4KYQaatmFtkAZA",
        "niceDate": "2022-06-14 00:00",
        "niceShareDate": "2022-06-14 22:21",
        "origin": "",
        "prefix": "",
        "projectLink": "",
        "publishTime": 1655136000000,
        "realSuperChapterId": 407,
        "selfVisible": 0,
        "shareDate": 1655216478000,
        "shareUser": "",
        "superChapterId": 408,
        "superChapterName": "公众号",
        "tags": [
          {
            "name": "公众号",
            "url": "/wxarticle/list/409/1"
          }
        ],
        "title": "一个Android沉浸式状态栏上的黑科技",
        "type": 0,
        "userId": -1,
        "visible": 1,
        "zan": 0
      },
      {
        "apkLink": "",
        "audit": 1,
        "author": "",
        "canEdit": false,
        "chapterId": 502,
        "chapterName": "自助",
        "collect": false,
        "courseId": 13,
        "desc": "",
        "descMd": "",
        "envelopePic": "",
        "fresh": false,
        "host": "",
        "id": 23031,
        "link": "https://mp.weixin.qq.com/s/8BWjUccNYl5SHw20KrF8hg",
        "niceDate": "2022-06-13 21:59",
        "niceShareDate": "2022-06-13 09:20",
        "origin": "",
        "prefix": "",
        "projectLink": "",
        "publishTime": 1655128744000,
        "realSuperChapterId": 493,
        "selfVisible": 0,
        "shareDate": 1655083222000,
        "shareUser": "趣阅编程",
        "superChapterId": 494,
        "superChapterName": "广场Tab",
        "tags": [],
        "title": "哔哩哔哩是如何做Android编译优化的？",
        "type": 0,
        "userId": 13273,
        "visible": 1,
        "zan": 0
      },
      {
        "apkLink": "",
        "audit": 1,
        "author": "",
        "canEdit": false,
        "chapterId": 502,
        "chapterName": "自助",
        "collect": false,
        "courseId": 13,
        "desc": "",
        "descMd": "",
        "envelopePic": "",
        "fresh": false,
        "host": "",
        "id": 23030,
        "link": "https://juejin.cn/post/7106722877134602253",
        "niceDate": "2022-06-13 21:59",
        "niceShareDate": "2022-06-13 09:09",
        "origin": "",
        "prefix": "",
        "projectLink": "",
        "publishTime": 1655128742000,
        "realSuperChapterId": 493,
        "selfVisible": 0,
        "shareDate": 1655082574000,
        "shareUser": "goweii",
        "superChapterId": 494,
        "superChapterName": "广场Tab",
        "tags": [],
        "title": "【Android 进阶】完美插件化实现，compose 开发动态加载",
        "type": 0,
        "userId": 20382,
        "visible": 1,
        "zan": 0
      },
      {
        "apkLink": "",
        "audit": 1,
        "author": "",
        "canEdit": false,
        "chapterId": 502,
        "chapterName": "自助",
        "collect": false,
        "courseId": 13,
        "desc": "",
        "descMd": "",
        "envelopePic": "",
        "fresh": false,
        "host": "",
        "id": 23039,
        "link": "https://juejin.cn/post/7108498411149590558",
        "niceDate": "2022-06-13 21:58",
        "niceShareDate": "2022-06-13 21:57",
        "origin": "",
        "prefix": "",
        "projectLink": "",
        "publishTime": 1655128728000,
        "realSuperChapterId": 493,
        "selfVisible": 0,
        "shareDate": 1655128679000,
        "shareUser": "鸿洋",
        "superChapterId": 494,
        "superChapterName": "广场Tab",
        "tags": [],
        "title": "Android 架构之 MVI 完全体 | 重新审视 MVVM 之殇，PartialChange &amp; Reducer 来拯救",
        "type": 0,
        "userId": 2,
        "visible": 1,
        "zan": 0
      },
      {
        "apkLink": "",
        "audit": 1,
        "author": "",
        "canEdit": false,
        "chapterId": 502,
        "chapterName": "自助",
        "collect": false,
        "courseId": 13,
        "desc": "",
        "descMd": "",
        "envelopePic": "",
        "fresh": false,
        "host": "",
        "id": 23040,
        "link": "https://juejin.cn/post/7108526362087915534",
        "niceDate": "2022-06-13 21:58",
        "niceShareDate": "2022-06-13 21:58",
        "origin": "",
        "prefix": "",
        "projectLink": "",
        "publishTime": 1655128726000,
        "realSuperChapterId": 493,
        "selfVisible": 0,
        "shareDate": 1655128685000,
        "shareUser": "鸿洋",
        "superChapterId": 494,
        "superChapterName": "广场Tab",
        "tags": [],
        "title": "ASM 插桩采集方法入参，出参及耗时信息",
        "type": 0,
        "userId": 2,
        "visible": 1,
        "zan": 0
      },
      {
        "apkLink": "",
        "audit": 1,
        "author": "",
        "canEdit": false,
        "chapterId": 502,
        "chapterName": "自助",
        "collect": false,
        "courseId": 13,
        "desc": "",
        "descMd": "",
        "envelopePic": "",
        "fresh": false,
        "host": "",
        "id": 23041,
        "link": "https://juejin.cn/post/7108604765898014757",
        "niceDate": "2022-06-13 21:58",
        "niceShareDate": "2022-06-13 21:58",
        "origin": "",
        "prefix": "",
        "projectLink": "",
        "publishTime": 1655128724000,
        "realSuperChapterId": 493,
        "selfVisible": 0,
        "shareDate": 1655128690000,
        "shareUser": "鸿洋",
        "superChapterId": 494,
        "superChapterName": "广场Tab",
        "tags": [],
        "title": "Android实现消息总线的几种方式，你都会吗？",
        "type": 0,
        "userId": 2,
        "visible": 1,
        "zan": 0
      },
      {
        "apkLink": "",
        "audit": 1,
        "author": "",
        "canEdit": false,
        "chapterId": 502,
        "chapterName": "自助",
        "collect": false,
        "courseId": 13,
        "desc": "",
        "descMd": "",
        "envelopePic": "",
        "fresh": false,
        "host": "",
        "id": 23035,
        "link": "https://juejin.cn/post/7108168432218013709",
        "niceDate": "2022-06-13 14:12",
        "niceShareDate": "2022-06-13 14:12",
        "origin": "",
        "prefix": "",
        "projectLink": "",
        "publishTime": 1655100774000,
        "realSuperChapterId": 493,
        "selfVisible": 0,
        "shareDate": 1655100774000,
        "shareUser": "树獭非懒",
        "superChapterId": 494,
        "superChapterName": "广场Tab",
        "tags": [],
        "title": "任务排序器为你的APP启动助力",
        "type": 0,
        "userId": 9375,
        "visible": 1,
        "zan": 0
      },
      {
        "apkLink": "",
        "audit": 1,
        "author": "",
        "canEdit": false,
        "chapterId": 502,
        "chapterName": "自助",
        "collect": false,
        "courseId": 13,
        "desc": "",
        "descMd": "",
        "envelopePic": "",
        "fresh": false,
        "host": "",
        "id": 23032,
        "link": "https://blog.csdn.net/willway_wang/article/details/125244145",
        "niceDate": "2022-06-13 09:36",
        "niceShareDate": "2022-06-13 09:36",
        "origin": "",
        "prefix": "",
        "projectLink": "",
        "publishTime": 1655084169000,
        "realSuperChapterId": 493,
        "selfVisible": 0,
        "shareDate": 1655084169000,
        "shareUser": "willwaywang6",
        "superChapterId": 494,
        "superChapterName": "广场Tab",
        "tags": [],
        "title": "Android实战&mdash;&mdash;腾讯课堂加载动画效果实现",
        "type": 0,
        "userId": 833,
        "visible": 1,
        "zan": 0
      },
      {
        "apkLink": "",
        "audit": 1,
        "author": "",
        "canEdit": false,
        "chapterId": 502,
        "chapterName": "自助",
        "collect": false,
        "courseId": 13,
        "desc": "",
        "descMd": "",
        "envelopePic": "",
        "fresh": false,
        "host": "",
        "id": 23029,
        "link": "https://mp.weixin.qq.com/s/RWdiiYC423ocH-iuaiqr2w",
        "niceDate": "2022-06-13 08:36",
        "niceShareDate": "2022-06-13 08:36",
        "origin": "",
        "prefix": "",
        "projectLink": "",
        "publishTime": 1655080585000,
        "realSuperChapterId": 493,
        "selfVisible": 0,
        "shareDate": 1655080585000,
        "shareUser": "JsonChao",
        "superChapterId": 494,
        "superChapterName": "广场Tab",
        "tags": [],
        "title": "这一年炼就的底层内功修养",
        "type": 0,
        "userId": 611,
        "visible": 1,
        "zan": 0
      },
      {
        "apkLink": "",
        "audit": 1,
        "author": "",
        "canEdit": false,
        "chapterId": 502,
        "chapterName": "自助",
        "collect": false,
        "courseId": 13,
        "desc": "",
        "descMd": "",
        "envelopePic": "",
        "fresh": false,
        "host": "",
        "id": 23028,
        "link": "https://mp.weixin.qq.com/s/mRXFIlT25hGxkQQpL3eoeA",
        "niceDate": "2022-06-13 04:44",
        "niceShareDate": "2022-06-13 04:44",
        "origin": "",
        "prefix": "",
        "projectLink": "",
        "publishTime": 1655066644000,
        "realSuperChapterId": 493,
        "selfVisible": 0,
        "shareDate": 1655066644000,
        "shareUser": "hackware",
        "superChapterId": 494,
        "superChapterName": "广场Tab",
        "tags": [],
        "title": "深入探索根据手机壳颜色换肤的简单可行方案",
        "type": 0,
        "userId": 8343,
        "visible": 1,
        "zan": 0
      },
      {
        "apkLink": "",
        "audit": 1,
        "author": "鸿洋",
        "canEdit": false,
        "chapterId": 408,
        "chapterName": "鸿洋",
        "collect": false,
        "courseId": 13,
        "desc": "",
        "descMd": "",
        "envelopePic": "",
        "fresh": false,
        "host": "",
        "id": 23037,
        "link": "https://mp.weixin.qq.com/s/dtfQz1ZGhC22yznlN8Gr0g",
        "niceDate": "2022-06-13 00:00",
        "niceShareDate": "2022-06-13 21:43",
        "origin": "",
        "prefix": "",
        "projectLink": "",
        "publishTime": 1655049600000,
        "realSuperChapterId": 407,
        "selfVisible": 0,
        "shareDate": 1655127788000,
        "shareUser": "",
        "superChapterId": 408,
        "superChapterName": "公众号",
        "tags": [
          {
            "name": "公众号",
            "url": "/wxarticle/list/408/1"
          }
        ],
        "title": "货拉拉Android稳定性治理分享",
        "type": 0,
        "userId": -1,
        "visible": 1,
        "zan": 0
      },
      {
        "apkLink": "",
        "audit": 1,
        "author": "谷歌开发者",
        "canEdit": false,
        "chapterId": 415,
        "chapterName": "谷歌开发者",
        "collect": false,
        "courseId": 13,
        "desc": "",
        "descMd": "",
        "envelopePic": "",
        "fresh": false,
        "host": "",
        "id": 23038,
        "link": "https://mp.weixin.qq.com/s/vBsog80lbG3GS8NlRFX1ww",
        "niceDate": "2022-06-13 00:00",
        "niceShareDate": "2022-06-13 21:43",
        "origin": "",
        "prefix": "",
        "projectLink": "",
        "publishTime": 1655049600000,
        "realSuperChapterId": 407,
        "selfVisible": 0,
        "shareDate": 1655127803000,
        "shareUser": "",
        "superChapterId": 408,
        "superChapterName": "公众号",
        "tags": [
          {
            "name": "公众号",
            "url": "/wxarticle/list/415/1"
          }
        ],
        "title": "保护 Android 用户隐私，从这些事做起",
        "type": 0,
        "userId": -1,
        "visible": 1,
        "zan": 0
      },
      {
        "apkLink": "",
        "audit": 1,
        "author": "",
        "canEdit": false,
        "chapterId": 502,
        "chapterName": "自助",
        "collect": false,
        "courseId": 13,
        "desc": "",
        "descMd": "",
        "envelopePic": "",
        "fresh": false,
        "host": "",
        "id": 23015,
        "link": "https://juejin.cn/post/7106404688924246023",
        "niceDate": "2022-06-12 15:12",
        "niceShareDate": "2022-06-12 15:04",
        "origin": "",
        "prefix": "",
        "projectLink": "",
        "publishTime": 1655017961000,
        "realSuperChapterId": 493,
        "selfVisible": 0,
        "shareDate": 1655017449000,
        "shareUser": "鸿洋",
        "superChapterId": 494,
        "superChapterName": "广场Tab",
        "tags": [],
        "title": "一个API处理Android安全距离",
        "type": 0,
        "userId": 2,
        "visible": 1,
        "zan": 0
      },
      {
        "apkLink": "",
        "audit": 1,
        "author": "",
        "canEdit": false,
        "chapterId": 502,
        "chapterName": "自助",
        "collect": false,
        "courseId": 13,
        "desc": "",
        "descMd": "",
        "envelopePic": "",
        "fresh": false,
        "host": "",
        "id": 23016,
        "link": "https://juejin.cn/post/7106375467292164109",
        "niceDate": "2022-06-12 15:12",
        "niceShareDate": "2022-06-12 15:04",
        "origin": "",
        "prefix": "",
        "projectLink": "",
        "publishTime": 1655017957000,
        "realSuperChapterId": 493,
        "selfVisible": 0,
        "shareDate": 1655017475000,
        "shareUser": "鸿洋",
        "superChapterId": 494,
        "superChapterName": "广场Tab",
        "tags": [],
        "title": "systrace 统计方法耗时",
        "type": 0,
        "userId": 2,
        "visible": 1,
        "zan": 0
      },
      {
        "apkLink": "",
        "audit": 1,
        "author": "",
        "canEdit": false,
        "chapterId": 502,
        "chapterName": "自助",
        "collect": false,
        "courseId": 13,
        "desc": "",
        "descMd": "",
        "envelopePic": "",
        "fresh": false,
        "host": "",
        "id": 23017,
        "link": "https://juejin.cn/post/7105910276448321573",
        "niceDate": "2022-06-12 15:12",
        "niceShareDate": "2022-06-12 15:08",
        "origin": "",
        "prefix": "",
        "projectLink": "",
        "publishTime": 1655017955000,
        "realSuperChapterId": 493,
        "selfVisible": 0,
        "shareDate": 1655017737000,
        "shareUser": "鸿洋",
        "superChapterId": 494,
        "superChapterName": "广场Tab",
        "tags": [],
        "title": "Android对so体积优化的探索与实践",
        "type": 0,
        "userId": 2,
        "visible": 1,
        "zan": 0
      },
      {
        "apkLink": "",
        "audit": 1,
        "author": "",
        "canEdit": false,
        "chapterId": 502,
        "chapterName": "自助",
        "collect": false,
        "courseId": 13,
        "desc": "",
        "descMd": "",
        "envelopePic": "",
        "fresh": false,
        "host": "",
        "id": 23019,
        "link": "https://juejin.cn/post/7106522434261483528",
        "niceDate": "2022-06-12 15:12",
        "niceShareDate": "2022-06-12 15:08",
        "origin": "",
        "prefix": "",
        "projectLink": "",
        "publishTime": 1655017953000,
        "realSuperChapterId": 493,
        "selfVisible": 0,
        "shareDate": 1655017739000,
        "shareUser": "鸿洋",
        "superChapterId": 494,
        "superChapterName": "广场Tab",
        "tags": [],
        "title": "检测Android应用使用敏感信息（mac地址、IMEI等）的方法",
        "type": 0,
        "userId": 2,
        "visible": 1,
        "zan": 0
      },
      {
        "apkLink": "",
        "audit": 1,
        "author": "",
        "canEdit": false,
        "chapterId": 502,
        "chapterName": "自助",
        "collect": false,
        "courseId": 13,
        "desc": "",
        "descMd": "",
        "envelopePic": "",
        "fresh": false,
        "host": "",
        "id": 23020,
        "link": "https://juejin.cn/post/7106438532528341029",
        "niceDate": "2022-06-12 15:12",
        "niceShareDate": "2022-06-12 15:09",
        "origin": "",
        "prefix": "",
        "projectLink": "",
        "publishTime": 1655017947000,
        "realSuperChapterId": 493,
        "selfVisible": 0,
        "shareDate": 1655017742000,
        "shareUser": "鸿洋",
        "superChapterId": 494,
        "superChapterName": "广场Tab",
        "tags": [],
        "title": "Android热修复，插件化理论与实战",
        "type": 0,
        "userId": 2,
        "visible": 1,
        "zan": 0
      }
    ],
    "offset": 20,
    "over": false,
    "pageCount": 624,
    "size": 20,
    "total": 12475
  },
  "errorCode": 0,
  "errorMsg": ""
}